LAB03/simulation/qsim/LAB03.msim.vcd
$comment
	File created using the following command:
		vcd file LAB03.msim.vcd -direction
$end
$date
	Thu Oct 13 01:22:01 2022
$end
$version
	ModelSim Version 10.1d
$end
$timescale
	1ps
$end
$scope module LAB03_vlg_vec_tst $end
$var reg 1 ! A0 $end
$var reg 1 " A1 $end
$var reg 1 # A2 $end
$var reg 1 $ A3 $end
$var reg 1 % B0 $end
$var reg 1 & B1 $end
$var wire 1 ' MUX_OUT $end
$var wire 1 ( sampler $end
$scope module i1 $end
$var wire 1 ) gnd $end
$var wire 1 * vcc $end
$var wire 1 + unknown $end
$var tri1 1 , devclrn $end
$var tri1 1 - devpor $end
$var tri1 1 . devoe $end
$var wire 1 / MUX_OUT~output_o $end
$var wire 1 0 A2~input_o $end
$var wire 1 1 B0~input_o $end
$var wire 1 2 A1~input_o $end
$var wire 1 3 B1~input_o $end
$var wire 1 4 A0~input_o $end
$var wire 1 5 u3|D~0_combout $end
$var wire 1 6 A3~input_o $end
$var wire 1 7 u3|D~1_combout $end
$upscope $end
$upscope $end
$enddefinitions $end
#0
$dumpvars
1!
1"
0#
1$
1%
1&
1'
x(
0)
1*
x+
1,
1-
1.
1/
00
11
12
13
14
15
16
17
$end
#60000
0!
0"
04
02
0(
#115000
0$
06
1(
07
0/
0'
#150000
1!
14
0(
#180000
1#
10
1(
#210000
0!
04
0(
#230000
1$
16
1(
17
1/
1'
#270000
0#
1!
00
14
0(
#300000
0!
04
1(
#330000
1!
14
0(
#360000
1"
1#
0!
12
10
04
1(
#390000
1!
14
0(
#420000
0"
0!
02
04
1(
#450000
0#
00
0(
#480000
1"
12
1(
#510000
1!
14
0(
#600000
0"
0!
02
04
1(
#630000
1#
1!
10
14
0(
#660000
0!
04
1(
#690000
0$
1!
06
14
0(
07
0/
0'
#720000
1"
0!
12
04
1(
#750000
1!
14
0(
#780000
0"
0!
02
04
1(
#810000
1!
14
0(
#900000
1"
0!
12
04
1(
#920000
1$
16
0(
17
1/
1'
#960000
0"
1!
02
14
1(
#990000
0#
00
0(
